%YAML 1.1
%TAG !u! tag:unity3d.com,2011:
--- !u!114 &11400000
MonoBehaviour:
  m_ObjectHideFlags: 0
  m_CorrespondingSourceObject: {fileID: 0}
  m_PrefabInstance: {fileID: 0}
  m_PrefabAsset: {fileID: 0}
  m_GameObject: {fileID: 0}
  m_Enabled: 1
  m_EditorHideFlags: 0
  m_Script: {fileID: 11500000, guid: a85b5df0733d99c4096a3baf660c8caf, type: 3}
  m_Name: trackPiece_X22.5Y0Z0 Variant
  m_EditorClassIdentifier: 
  canBeWrittenTo: 0
  _trackPiecePrefab: {fileID: 2342109726367108926, guid: 9fc9cf3d55425df4ab9d6532aa64cc48,
    type: 3}
  _directionVector: {x: 22.5, y: 0, z: 0}
  _endPointPosition: {x: 0.000000029802322, y: 40.89124, z: 205.99608}
  _directionQuaternion: {x: -0.19509032, y: 0, z: 0, w: 0.98078525}
  _name: trackPiece_X22.5Y0Z0 Variant
