%YAML 1.1
%TAG !u! tag:unity3d.com,2011:
--- !u!114 &11400000
MonoBehaviour:
  m_ObjectHideFlags: 0
  m_CorrespondingSourceObject: {fileID: 0}
  m_PrefabInstance: {fileID: 0}
  m_PrefabAsset: {fileID: 0}
  m_GameObject: {fileID: 0}
  m_Enabled: 1
  m_EditorHideFlags: 0
  m_Script: {fileID: 11500000, guid: a85b5df0733d99c4096a3baf660c8caf, type: 3}
  m_Name: trackPiece_X0Y-45Z0 Variant
  m_EditorClassIdentifier: 
  canBeWrittenTo: 0
  _trackPiecePrefab: {fileID: 7271437598090052007, guid: 358a29a3bb947c54a954124db8a3443d,
    type: 3}
  _directionVector: {x: 0, y: -45, z: 0}
  _endPointPosition: {x: 74.584625, y: 0, z: 180.06326}
  _directionQuaternion: {x: 0, y: 0.38268346, z: 0, w: 0.9238795}
  _name: trackPiece_X0Y-45Z0 Variant
