%YAML 1.1
%TAG !u! tag:unity3d.com,2011:
--- !u!114 &11400000
MonoBehaviour:
  m_ObjectHideFlags: 0
  m_CorrespondingSourceObject: {fileID: 0}
  m_PrefabInstance: {fileID: 0}
  m_PrefabAsset: {fileID: 0}
  m_GameObject: {fileID: 0}
  m_Enabled: 1
  m_EditorHideFlags: 0
  m_Script: {fileID: 11500000, guid: daa5ce5672c5ff54bbf385140384e8f3, type: 3}
  m_Name: DeleteMe
  m_EditorClassIdentifier: 
  Value: 'delete just here to have folder dtructure on git '
  ResetOnDisable: 0
